Basic Debugging
…
Think about what you want your data to look like

Think about how to take information from where it is and put it where you want it

After every step, look at the data to make sure its doing what you want it to

The tidyverse makes this last step very easy - you can simply remove the pipe (%>%) after a line and run the code, and it will show you the output up to that line.

For example, we can just check that our datetimes work:

flights %>%
  filter(dest == "IND") %>% # Just get IND flights
  mutate(datetime = make_date(year, month, day)) # Calculate a date by combining year, month, and day

## # A tibble: 2,077 x 20
##     year month   day dep_time sched_dep_time dep_delay arr_time sched_arr_time
##    <int> <int> <int>    <int>          <int>     <dbl>    <int>          <int>
##  1  2013     1     1     1032           1035        -3     1305           1250
##  2  2013     1     1     1330           1321         9     1613           1536
##  3  2013     1     1     1507           1510        -3     1748           1745
##  4  2013     1     1     1550           1550         0     1844           1831
##  5  2013     1     2      817            630       107     1107            845
##  6  2013     1     2     1038           1035         3     1309           1250
##  7  2013     1     2     1507           1510        -3     1732           1745
##  8  2013     1     2     1615           1550        25     1846           1831
##  9  2013     1     2       NA           1321        NA       NA           1536
## 10  2013     1     3      635            630         5      920            847
## #  with 2,067 more rows, and 12 more variables: arr_delay <dbl>,
## #   carrier <chr>, flight <int>, tailnum <chr>, origin <chr>, dest <chr>,
## #   air_time <dbl>, distance <dbl>, hour <dbl>, minute <dbl>, time_hour <dttm>,
## #   datetime <date>
